303,"All goods [other than fresh or chilled] and put up in unit container and,- (a) bearing a registered brand name; or (b) bearing a brand name on which an actionable claim or enforceable right in a court of law is available [other than those where any actionable claim or enforceable right in respect of such brand name has been foregone voluntarily], subject to the conditions as in the ANNEXUR"
401,Ultra High Temperature (UHT) milk
402,"Milk and cream, concentrated or containing added sugar or other sweetening matter, including skimmed milk powder, milk food for babies [other than condensed milk]"
403,"Cream, yogurt, kephir and other fermented or acidified milk and cream, whether or not concentrated or containing added sugar or other sweetening matter or flavoured or containing added fruit, nuts or cocoa"
